-160053849542.5478 31669952210.070026 -1312920778.130806 471540357.03138363 -807002686.1524895 -287704890.8557642 45437197.3041834 185936700.34209114 100939430.95415737 -28681358.32428102 -81088724.31219143 -42994071.63493559 19694067.721544337 44108181.761182815 20903278.33690516 -14781149.465347923 -26968019.350676693 -10742485.214358663 11612904.654467637 17676141.744577568 5478423.605456691 -9360000.750742165 -12087684.67442967 -2539153.061962807 7655159.500689914 8472486.324888133 824113.5728586006 -6309063.746638028 -6008223.858917078 193804.9891264149 5212943.601499258 4263536.059294787 -790851.5524743003 -4300764.412426319 -2995418.4355308693 1121417.7901711757 3529596.1293214853 2057857.527235102 -1277615.6610482933 -2871465.8118219976 -1359925.8584466558 1315809.7015838146 2306332.42077894 841716.2269324813 -1272615.9569921452 -1820365.562929526 -463653.45346295444 1170865.1134044903 1401860.6153463733 197339.92631148946 -1026210.384488774 -1042341.3673642238 -22986.15630835044 848869.2342124226 728469.5451505956 -88979.68985676082 -628575.5677227482 -367497.75306684425 100057.74411750371 -54347.73288686773 54815.16847757742 2673639.1131491046 -4153708.586226588 1820015.3366216554
656117470131.0997 -130654647124.14726 5725495878.263375 -1840404576.014024 3292646041.903837 1126012833.4151716 -207397022.21703112 -748932212.2102072 -393100339.18629867 123808847.78080668 323817961.051116 165877344.5503453 -82588995.15424545 -174918436.65507883 -79801325.90526958 60832740.5462904 106296785.97808146 40452221.755608276 -47179768.25917899 -69279220.15876289 -20189550.486725193 37667300.55728669 47111899.11860435 8948581.222494796 -30577581.654058006 -32826445.146633115 -2438659.0143002365 25043537.225909792 23121666.661298048 -1387870.503550713 -20576120.320053447 -16270668.428137427 3600939.384799594 16882733.08149137 11303300.816139724 -4796402.356415627 -13775232.137118708 -7637662.342808835 5328945.926268505 11131837.527571036 4912069.4383742595 -5414591.229155974 -8865383.126051225 -2887634.6224255376 5193800.590392781 6915286.176972418 1405347.8167028853 -4754100.200751059 -5228874.587010336 -348034.15224670473 4155868.103657941 3770656.465518356 -357524.95245193254 -3467556.1859808513 -2580933.720069885 928097.7285804728 3226026.7856753115 1061785.7809039385 -3934355.3159043062 -1235608.25360271 17572415.24042725 -36127400.89141131 32395259.581864208 -11175326.178258121
352635584565.4199 -68354343251.44859 2291531771.3450923 -1190341424.834701 1808647143.7596905 723867765.65187 -67007025.04883638 -433168610.2025504 -256219598.08676085 54083319.30051408 193269947.5146674 111221909.4326616 -41060357.509332396 -106908893.7357679 -55162256.68276705 32617210.845220145 66248742.0602994 29046365.732338816 -26546116.220473047 -43919983.28418281 -15355751.967041949 21909591.13226224 30343800.36059314 7620289.176578402 -18226093.308462583 -21479862.0482842 -3048198.316921603 15215377.79100952 15389990.121580556 292091.0317562516 -12700739.43934282 -11049654.640899455 1358246.6486881545 10567147.91869184 7877112.7149531515 -2302450.959183032 -8735853.612632925 -5520917.415122196 2779513.300013838 7153161.097474436 3760459.946383314 -2936616.927065429 -5779053.304549738 -2450199.0145058003 2868071.291475843 4583280.106789538 1493297.8524914423 -2630482.5457932577 -3538767.5737489276 -823837.9755963462 2270965.275025696 2641995.361478515 313452.3779480759 -1986086.672349932 -1496092.3860464212 1189107.7810244872 291176.90267219755 -5490764.742356173 2436782.83528353 39020203.93569089 -88900913.46640642 83385095.39017285 -36569573.66724189 5864120.176966344
-7769707554.324186 3156971239.717228 -715509971.7696061 -169537714.42511562 -15413902.848013371 92312804.64605474 48269762.16491316 -15466641.586700696 -37651314.749913044 -15962300.690587047 12721354.63167425 19824048.4561828 5886626.3577438025 -9673101.967083879 -11741218.756554704 -1923544.1424540337 7440415.515073098 7443715.299365616 145188.10590116886 -5834819.434320288 -4915741.241325859 704941.5380964971 4655862.157596962 3322802.4510840406 -1113957.4847457549 -3769779.7208042555 -2270353.6712960745 1297291.421117898 3091133.099081417 1552268.2291591405 -1360506.315390058 -2565295.7448897953 -1052814.2948306391 1359241.9948466269 2156254.0791225755 702588.9420024104 -1325465.7733291604 -1840596.0955206507 -458525.22044245724 1278625.9791029103 1603227.5348950026 293045.7420445376 -1232232.5031624155 -1437003.3459039172 -190812.88498286254 1196757.670464752 1344078.8336217802 143776.6269274593 -1187186.385524444 -1313740.2016752653 -120028.66414882678 1070139.174109519 1065558.3586621874 792633.2021356699 1009162.9486059941 -3336754.777417217 -11543669.281556537 6317388.90632698 68306699.36188951 -152215340.16933456 147640615.89453524 -73529964.15203945 16178362.310215827 -428508.61558089504
-679001882684.9678 133882592364.896 -5348115781.153191 2036460059.979531 -3441351614.289846 -1247158305.1491594 187989833.14269283 797937605.683848 436048565.9237982 -121842164.64144647 -348522267.3648404 -185168885.89917368 84518269.0844654 189487792.46501017 89587722.83777337 -63675172.68074076 -115638227.67016856 -45689131.45230262 50057179.38010005 75559389.14788258 23000396.434453756 -40294498.646388836 -51440218.775400914 -10375689.244167997 32866783.580509365 35833355.274872884 3046704.839567872 -26978278.352904547 -25194199.35399856 1269018.7542439546 22166006.892951548 17661164.657217827 -3766167.268350522 -18145192.20628524 -12183676.463163296 5111408.27238516 14727950.474534204 8128824.923658659 -5701152.4747357955 -11788210.730559193 -5099300.449856995 5777201.378377556 9230574.302162312 2827409.67027232 -5494679.799594365 -6977221.740938345 -1129430.482303654 4942042.8249807805 4985383.5507898675 -90614.56907928216 -4403478.131915606 -3624733.24448576 1970507.8411845092 6680547.154489435 -1373133.258187647 -18502511.714587368 5920592.932755273 98524687.23568511 -227442014.99293572 229155389.2189686 -113173388.57056595 24140155.451068953 -4941393.904516345 3203442.823523858
-631107313244.0089 121966152819.37288 -3988064281.9801197 2192823442.6175156 -3230348933.636795 -1321928230.9417074 101571687.03448562 777686729.038822 471172094.816604 -89477049.75203747 -348938832.9893415 -206346405.49566615 70124824.00026369 194070439.18069503 103377497.44244003 -56773099.74357725 -120896541.69304721 -55140124.63475581 46791635.99426038 80570295.2678682 29710868.970944233 -38969954.69950536 -55967859.40521422 -15258983.231921397 32642567.667711385 39853762.788563855 6663185.978050056 -27401179.411579367 -28751396.007712647 -1444742.4885504132 22977669.43937753 20820152.12322752 -1705961.5071297945 -19192601.193870112 -15013759.384911159 3526541.794515498 15919589.204246173 10699726.023245139 -4456966.371255124 -13069389.753093552 -7481116.969906342 4764033.132461377 10569063.657150228 5097748.693835021 -4607243.941521694 -8360721.7795077395 -3387921.6699991203 4119449.884228992 6449060.071532277 1921648.2083865094 -3948239.6861698553 -3327354.327399567 3193795.6200404135 -1841414.517073132 -20220988.66795098 13258865.823015064 134548732.64924747 -320917615.0098462 318022284.93687195 -158284791.97265568 40951629.85084533 -10023431.106362676 2715108.658271409 732271.5694999574
118013569165.16289 -25383516248.01707 1751230390.3101451 -86278134.14594254 577620186.6560141 75399781.56294015 -100327375.46077122 -109255122.42080086 -16831931.604752384 44218563.95904271 39099181.56090544 722901.7427717636 -23441850.02358303 -16974178.74477945 3390342.9599906625 14012106.706854383 7817778.58844741 -4332485.215757088 -8949417.55637428 -3406401.3674399625 4306395.434077449 5908564.085113941 1059855.5248885176 -3972516.4451216105 -3929015.533047094 278192.62968861597 3555639.155911019 2558044.3143480355 -1082593.5334240946 -3136823.2424391387 -1557958.499183651 1590547.6489170352 2746294.9101523855 793922.2010872294 -1930794.463682759 -2394506.940322685 -182582.7799276601 2181539.5211593034 2087278.947040814 -330381.7623401676 -2397855.396734078 -1833465.1144289237 786584.5571511008 2635928.83459953 1645382.8260136559 -1232694.9011239826 -2892933.7874071705 -1460231.972243965 1287907.304273614 2443603.998678385 3248736.9663989893 4023179.2133636517 -9326905.082575286 -32221751.292748455 19329075.998983223 182341791.64590457 -420029522.29636556 420112517.5017812 -216598370.72813353 54053814.96114831 -11448653.349786619 7337948.963073037 -272750.94380063325 -1416570.4916137361
859480836195.7307 -168265975573.81332 6282927155.098933 -2716568512.224141 4374433673.57366 1655208232.7558064 -205637431.77886114 -1027457282.0370935 -581411321.0416459 144376014.4837445 452427893.3330436 248909929.13211808 -103788024.92917375 -247447607.3853517 -121445551.36774115 79855276.77519925 151690511.90438282 62576008.42547644 -63602718.125732586 -99452383.5130921 -31997908.48588053 51624296.65043369 67871272.04029638 14904904.006636323 -42321620.34575824 -47351848.816278785 -4939429.492720066 34826831.021008514 33311037.775387242 -951674.4639586922 -28618517.966834135 -23334072.071888424 4369832.989046572 23366046.64914079 16052417.76399225 -6210118.228412773 -18843156.99449828 -10635961.326911697 7004280.506985674 14887317.684681974 6552443.763369312 -7073780.423094723 -11354809.17125704 -3438902.6680730893 6605235.370073708 8196207.889481871 1137092.8219285416 -6252511.443867846 -6283800.994111366 3066114.29709738 12452508.309836337 -4781292.684446591 -41318528.285989344 18661194.68248341 225963995.5873098 -533843400.9309992 542708571.3347663 -274525531.4949982 68504397.42952247 -20905475.77037437 7522026.237952467 4818358.768521553 386916.6642108939 -2951543.732882258
726890513164.6871 -139589182040.34464 4274053485.5344315 -2649799293.818779 3719371720.43036 1581939614.604753 -82925646.08435483 -904561659.9242642 -568612371.1170591 90218327.25976194 409403830.73112744 251989558.13873044 -75118454.102429 -229507739.43154243 -127973835.24534571 62815518.746324904 144051106.77120897 69459392.95156023 -52820106.382569246 -96721050.30339889 -38395081.707590625 44598428.32164618 67713760.07201299 20614090.791277543 -37736060.938234 -48638159.40663493 -9959588.339334646 31925431.109798342 35452024.91059372 3441403.9073057347 -26939971.181098145 -26011300.36445864 522911.9341417026 22615978.31983599 19095708.77929367 -2822930.882842806 -18828402.528015517 -13967641.014875546 3980474.9054075256 15475155.978425624 10168063.70665231 -4288317.41798333 -12467758.69050889 -7419570.923710721 4003833.240133291 9849111.898694664 4863431.607993045 -4434618.082832004 -4393323.575654288 5505976.339054832 -7273591.624116303 -43572553.280847974 31293063.747879826 278979582.5957516 -669166961.2825391 669358930.626245 -340950945.4929906 92657767.81082928 -23234570.880325556 6233036.259238698 -84571.55053197198 2809691.8444474195 -329424.6685538736 -1469316.7853120675
-239215167481.82056 49193961541.20138 -2640077901.17529 442735088.39681566 -1204608686.323867 -300751312.42839766 139843344.33614028 255774255.93393478 92912163.29539117 -69821405.49126711 -102319596.14856105 -31388588.80548581 40993766.0148061 50549917.71971413 10279835.014188249 -26946588.120835405 -27615552.95010945 -1715688.6066497352 18841809.492832728 15736535.449408833 -2077196.686613631 -13616718.915196981 -8905069.694075463 3781660.021916304 9972440.17710773 4666332.128857415 -4481856.352130697 -7274627.378242557 -1876322.6992493852 4667487.038951736 5177196.436631553 -57823.72384252436 -4583042.20926489 -3476185.7898762054 1472063.7313974432 4362857.690446146 2040501.2825516511 -2582544.213199566 -4100097.975830893 -777343.3519108113 3561993.091285197 3863105.8909590184 -411900.76361032383 -4443618.418714565 -3566452.4329413995 772995.0467482851 3867676.5466002445 7123079.287211077 9193754.954276612 -17752381.006301917 -62645436.19390636 38113996.08396509 346208620.0198411 -806090569.7509253 813905564.5559356 -423215266.27090824 108961319.17301041 -26829916.622390892 13889837.205669206 2437848.9605559614 -269429.38860097853 -4122881.1422642875 -533375.7065050361 1672564.0112699468
-1043551922225.3337 203230281570.0556 -7219359789.452439 3434490727.5524187 -5318262749.222126 -2078773569.5407095 214956985.4239483 1259996817.1061122 734006772.8939089 -163150286.0004506 -558176361.8750484 -316705053.52082133 121089113.63489495 306744675.5655946 155865858.35338965 -94913588.9458951 -188769221.83411196 -81207770.66531944 76465699.95441867 124150153.22232503 42248081.619357966 -62508524.52326788 -84938391.25974235 -20376418.594481956 51453429.5944774 59371093.1525184 7575876.485609129 -42403349.23424568 -41815719.33239887 13411.463055842652 34798561.65454611 29295446.80108948 -4419381.578571472 -28269613.29048062 -20113620.486399528 6776239.639980416 22544976.781475693 13223195.81744081 -7751896.580304391 -17393774.7186467 -7947723.185869374 7717255.527096416 12747904.319920633 3990671.545545437 -7905131.46803798 -10205944.392454145 3637416.8635686715 19888341.737965703 -9440433.167069431 -72621246.80913797 37654599.362217814 403908417.66899174 -964319471.7553113 982317665.4855796 -500731181.7888744 130399756.95338272 -39761262.79525659 11916423.348295456 5188002.263371234 6433324.677647366 -2206511.5969494535 -7011707.317765873 -478560.0316725807 3383063.1993576055
-760246420086.8638 145147776261.04044 -4181088383.315516 2896664802.563624 -3882311189.8203907 -1711134714.9005294 50244141.730615824 952031388.0133073 620530893.2298071 -79544142.93088835 -434273827.4648427 -278365849.8219452 71460984.09735587 245340410.87322456 143434030.055905 -62027714.53264819 -155194388.66078457 -79339600.66945998 53326474.350059055 105059023.22525819 45087781.70750615 -45698385.408864304 -74218880.66257651 -25356367.280395575 39082265.77815342 53876579.12389126 13462020.067160131 -33332384.545890756 -39788024.84920103 -6152355.925657826 28299811.2612892 29700220.087262366 1708787.7039037368 -23855025.79184784 -22331532.81734186 820015.241074247 19871992.09938197 16914833.330510397 -1951384.7974747918 -16240508.815802867 -13012738.202895608 2124208.5577223157 13058350.759190835 9153398.306053983 -3577600.4082334936 -4695026.381459148 8342504.030840793 -16258027.783967659 -76684278.95353568 57152176.68301131 478234761.13754535 -1146869041.8361764 1151059392.9185007 -592503196.14983 163055679.9396343 -40733805.59976434 12675347.477722706 -1312707.1062990178 3298579.977759913 1285906.404281403 -1283578.842633688 -3016194.1092937626 69312.39140679376 1628563.4952531133
398807070366.4533 -80198133218.47133 3689853744.4829803 -963812082.4989353 2028268447.190616 621440354.7969098 -177394702.52332777 -451980076.93064207 -203838247.11841866 98018588.28210323 188595417.40488985 77799352.4209596 -61626520.646225154 -97179573.6441985 -32002175.882601406 42833421.12146128 55598444.43736592 12111505.60361247 -31378124.701565012 -33486970.767641656 -2499022.829747231 23614175.1508796 20426769.43898018 -2409323.0352797946 -17950711.413177874 -12100370.10328794 4939020.29111281 13583277.713758491 6462882.777585408 -6180442.045887749 -10058352.62775035 -2435185.670962791 6701932.101223587 7099543.81010769 -616346.3525454225 -6842815.136970339 -4516538.627251789 3137759.3338146023 6825882.538558011 2128848.207733788 -5269732.608167007 -6575000.849323594 -1200541.100316802 4826252.0170858 12725427.339916483 17394931.689884856 -28612939.65577964 -104454233.88758641 63055019.882878065 567098130.1314791 -1327319714.87285 1346485774.8128784 -701833478.551034 182463572.12801796 -47799959.447158486 22960787.687084936 4690629.016759208 2010287.8638204553 -5547196.256504302 -5011325.587259828 557202.7901342164 4614290.951350131 630331.592150031 -2033427.3704347266
1212939603767.3677 -235208053652.3493 8025911381.612103 -4129287485.7106185 6179896449.818659 2481236380.471838 -212255473.71540782 -1473213419.95225 -880762675.1023707 175194149.85332763 655743237.7688408 382982936.40778965 -134037418.93976486 -361745233.0378067 -190148145.38447356 106907533.19161156 223349487.50444534 100239110.69528037 -87027202.48442148 -147303674.3286626 -53128157.52291819 71572861.60276999 101013334.9364331 26582947.97425704 -59078778.104678676 -70736514.04909892 -11004238.506297085 48670085.0829674 49875660.39097562 1759743.1653646699 -39771785.03205371 -34929216.258980416 3586579.2065298096 31972638.600148942 23872664.075179126 -6389142.493388584 -24913255.852713656 -15452000.089995522 7393308.226618449 18513725.38992737 9120048.685130043 -8677210.623383425 -15346102.393342776 3279451.1082808524 28782884.37873416 -15776648.64190724 -113664120.11119659 64418059.85833744 641301762.276085 -1539931360.2945986 1567850695.7054098 -801737270.4869965 213538183.0490936 -64537150.73402289 18064717.05637113 5856571.015178555 10463188.728104437 -181095.09507681284 -8094206.555637656 -7203288.793129602 1798343.395448657 7944648.251984219 649747.6103192142 -3799273.744973026
741909133100.032 -140772581326.49506 3794137039.3534503 -2961391421.670363 3775205265.782523 1728148999.4076831 -7969336.585882453 -933026838.113864 -633165387.192057 60028050.90836819 429124927.0860138 288080418.04574525 -60715363.18181798 -244488482.3092967 -150967129.06004867 55508225.83267259 156083798.65143996 85403540.74466622 -49118825.25379357 -106738300.01619048 -50139853.670222305 42878350.183211766 76293054.47730939 29707903.537228942 -37145656.44011857 -56176341.77453843 -17344833.068113174 31971636.306978516 42247471.7092239 9758901.007861871 -27302075.26520866 -32310147.365419675 -5233470.668114431 23030685.105807655 25127270.387995306 2881386.0239052903 -19038733.69539957 -20021338.936775748 -1979689.0589317011 15521183.83854441 14688869.702208176 -968826.6875859378 -3591226.5720782275 12134821.395185336 -29691934.64171402 -121973905.22716743 92121023.1266847 743124348.9443036 -1777688676.8348024 1786678015.9803863 -925301931.7290099 255305451.75057426 -63415684.62553299 22001297.21713679 -2180373.539147786 3836009.159988305 904623.7484562739 -1050297.3491513515 -2864761.2558847666 -1901629.9195170708 1153568.6504057355 3002406.749020559 6168.366173784897 -1580948.7561910439
-589442567549.3595 117005993771.22238 -4871254375.82755 1622232525.2205985 -3008316127.0653734 -1019764957.0034071 211482710.22948498 687373526.7187471 343429814.9414109 -127255533.03109884 -293005305.34175473 -137276695.24334738 84119026.32936794 154116304.36853018 60543767.111816846 -60615348.45819539 -89998632.55042443 -26250374.075675238 45658530.25819743 55431911.505397685 9135269.306228321 -35126162.42117143 -34722500.07753063 -28607.30076458965 27180174.080631625 21313222.460598722 -4957264.779910672 -20865564.87664735 -12069028.648803664 7679138.28783614 15624756.74605045 5299355.851071144 -9146429.188083434 -11097260.840549344 52742.40369827341 9955375.771931749 6963756.0942700235 -4407066.746886559 -10139215.18801274 -5171755.912794846 4543901.449298913 20044168.53578767 29549115.17303954 -41893484.058958955 -159862847.03318298 95194148.07628179 856438985.1191201 -2011247430.1374595 2045308032.6845496 -1065704777.7037574 278256474.3556034 -76104688.61620095 34445405.45987772 8095507.750755122 5227999.174376177 -7581951.538501956 -8944878.116389675 -1965490.0927953413 5680600.449878914 5927665.632535507 -632573.5430725456 -5549603.954058082 -720230.5972474865 2515953.565865121
-1360451646752.6829 262835135202.1709 -8667397159.083178 4772183278.131452 -6921807590.333319 -2845367233.863172 197037851.75820965 1657429757.239685 1015443921.7357187 -179473254.11172736 -740543116.5681028 -444998316.8211439 141661897.58757493 409855533.43936646 223041425.72977063 -114872947.26593246 -253730832.84551772 -119081333.37391357 94410601.65909421 167742373.50382423 64419431.58241645 -78016889.5184975 -115260905.28618169 -33535604.55435501 64448094.05534121 80828614.62652794 15388874.09873277 -52898998.34693374 -57003629.32144693 -4646033.791652621 42779647.180422746 39791161.68408564 -1487585.0691273457 -33579363.95153392 -26876652.161372118 4488989.201361359 25201557.922610458 17221599.646733373 -7707859.366922181 -21530518.035264645 1631281.829758128 38942408.324922934 -24578296.24187128 -166577375.07387576 101200055.96785744 951673305.7085146 -2292255396.949336 2329451484.0049095 -1193054587.8810632 322584285.2973285 -95967530.17895278 25832255.320660148 6048918.07739617 15181583.296488566 1788061.6507100884 -9676091.416152362 -11051213.553207284 -1205177.472629029 8592353.686812986 8105587.870976154 -1711968.5809059464 -8687446.29888159 -769418.4788655866 4152722.5584813426
-674112448229.9093 126913465732.2109 -3130123442.372682 2847645323.354311 -3410934847.92041 -1636565324.6818523 -42151597.91072937 850622969.0376356 607603321.5153941 -32592026.25328782 -395277961.6841089 -281547305.9944342 43439162.00545428 227714600.4401332 150855595.60738406 -43531513.23481079 -147150372.01140973 -87825165.04832739 40375349.369451664 102074173.60586561 53717181.56034647 -36245606.92798639 -74207846.74147895 -33868898.20694763 31971746.201595243 55801992.750833966 21872873.429310646 -27823052.92778561 -43115741.29674561 -14643017.198313601 23818636.577099305 34181318.73236161 10661355.830093399 -19891515.846079722 -27984635.382648088 -8777981.893873861 16394396.759848937 21100333.182240546 3800609.375766998 -124152.48667865248 17703109.750855822 -48738577.73937838 -183004054.6577776 137948578.52394003 1089187496.5591016 -2596127711.1056695 2610742939.2004604 -1357141996.9438999 373612820.62213874 -92538396.66020572 35079636.89755377 -2548299.8643421656 4288459.08718688 -502051.86766421905 -1720433.051309866 -2756544.6944762575 -1600333.1051369081 842448.9212377891 2530451.0072029373 1729310.07914697 -978693.7676123489 -2603961.570337595 -9800.267278086181 1367968.3247285604
802176175365.5828 -157896066438.3707 6135236310.982157 -2387296389.653483 4096725811.2492447 1475879959.7822506 -239923249.05756736 -949743739.7600397 -504697775.5460878 155615991.9934663 409862567.4484075 206816326.97129264 -106931295.9628045 -218060117.15121666 -94396955.30849662 79087805.45991139 128744374.14736581 43413094.14106471 -60615837.99423053 -80098294.48009777 -17476244.835411783 47209682.74166892 50665484.07652731 3361766.220037497 -36809775.80633802 -31369057.34796877 4628984.8556604795 28328408.49118552 17815007.733324397 -9286702.322350338 -21098573.672998868 -7538414.746934288 12121808.200582406 14580967.679501766 -532898.0970566121 -13511733.076078692 -11613677.170857904 1970310.5087221917 28855298.147900213 46732525.50763307 -57622788.95185457 -231859051.1649162 136284608.84226078 1230549139.0536368 -2897312386.152918 2949321946.1551876 -1533737570.9730208 401663083.6210386 -113543165.84042493 48330291.77451263 12631015.480989333 10232967.530185191 -9691066.60077263 -14279354.083569484 -5373810.571942142 7111070.10628729 10189908.749806037 2458918.00482382 -6496175.93458882 -6987622.464703761 772346.0624406154 6686085.531251793 828268.6232054653 -3078653.7619352355
1478778012793.6956 -284719643272.66895 9106328302.171276 -5334862501.137988 7505777985.098397 3154030875.94458 -168561415.90987217 -1802861053.9053993 -1131898959.8006659 174823761.34717622 807954953.2186925 500094206.9582659 -142853024.3414605 -448386403.2573462 -253273784.50060996 117837330.68033276 278244131.92969245 137235920.38613534 -97646103.97176452 -184281427.4786769 -75991341.58896077 80920767.28584692 126808688.29438731 41341403.33100248 -66656100.409251764 -88960352.26463325 -21008485.693652183 54127805.671998926 62566049.706266716 9076221.388036434 -42660338.36580418 -43238438.48673957 -2556723.7684932407 32176058.77574149 29004238.074494928 -3836446.4747131653 -28299127.832617223 -1538808.4958456892 50171432.941362105 -37159277.18790998 -234627982.0897505 151182104.40294647 1354284460.235614 -3265556821.15824 3309568392.192496 -1696561045.5796432 463711997.47146696 -135078879.25615537 35884638.59142057 5294836.021582133 20249971.912360467 4305143.024315477 -11013970.060244963 -15241035.61571124 -4071191.853569133 9626270.695874972 11949329.72890201 1814660.9829152236 -8935492.160304436 -8741975.442720082 1685248.5096717535 9242162.960240753 850175.9665781532 -4419829.775406078
558887953118.3949 -103978190755.07877 2203797434.7085 -2559198943.347478 2801345995.211386 1439958963.56204 98609022.12810698 -707811372.9778765 -545050958.6065363 -1943930.2937801597 334100182.3731428 259307331.4554318 -20124630.687668283 -195819429.51120284 -143426861.50359255 26436903.529719934 129004183.07631539 86952038.14090478 -27237316.40316262 -91497748.73083732 -56135992.20486709 25871771.093120825 68358031.02385588 38216204.16764468 -23544766.69364946 -53158161.42763791 -27567140.40756023 20719640.102114845 42855173.803760916 21623144.688052855 -17521255.177390393 -35985652.7562966 -18589690.2724212 14585467.005486483 27650519.28696868 11015465.489580354 6988785.978682488 26414906.840931956 -74792998.48732573 -264753156.4269768 196957302.3949317 1537994800.3162541 -3650492445.4142094 3671585424.2359767 -1912531907.245923 523828657.2710668 -130049395.76867479 52882165.282873616 -1872327.1078730426 4858875.958851539 -3343419.2469805647 -3505037.2811340922 -2538597.8303411957 -251149.40520617063 1609403.1272717956 2141579.1965161576 1037382.1675903593 -811550.0291725637 -1856005.8582564576 -1130035.9396863151 796610.2387751566 1870516.7476571805 -38346.6039260337 -1005751.535216826
-1027528081178.3993 201039766682.35513 -7428022098.81617 3226740246.114183 -5242643331.2641735 -1968877560.1820657 260321207.09865814 1226080951.1118608 680204418.3103614 -181022878.45345235 -533049479.29579866 -283192507.0277423 128375208.29927018 285427982.3128073 131973157.60539934 -96817455.24153043 -169422628.60341924 -62713991.00284651 75073288.72097942 105790659.21812305 27085147.572365418 -58763542.897262186 -66876368.751579 -7323204.49365644 45807068.996690206 40999852.25103353 -4228367.7907569315 -34956308.906099714 -22298783.062956464 11354369.96448203 25306980.883198112 8157523.0307978345 -15379059.382363556 -20871158.501784462 -4286536.74096252 38642240.369426005 70179579.54214713 -75961062.32814184 -324504225.78260654 189076621.85893038 1712333301.4859958 -4040678629.5365305 4112405810.5335245 -2132156393.94798 560149863.7420908 -162387397.5907545 64704011.44306176 18115380.508691445 17525489.575892005 -11326718.74007609 -20992321.788223382 -10535248.460534656 8277640.674737046 15694050.532415979 6416322.682730915 -7680707.286350696 -11612467.528075395 -2912973.632837086 7513196.272510721 8165095.466536061 -941306.3209475371 -7928026.94022685 -948659.6723870599 3684656.408490699
-1560965270134.456 299534514203.4505 -9306195651.997156 5790957804.9341955 -7895335393.134069 -3391156109.632759 125883900.47413449 1900148209.4348469 1224396074.9546738 -159997253.19204175 -853560260.6943686 -545855429.8053114 136419275.96275088 474757762.64274305 279769551.11632925 -114679726.036599 -295190539.5520645 -154265265.27040634 95711326.34347945 195785645.92215717 87877306.32380724 -79185433.293588 -134737752.41690034 -50271285.8390312 64507728.26870669 94272890.5767649 28344927.979486037 -50876870.6935421 -65692247.785957836 -15876025.17230795 38319333.3044066 45146003.09525171 4446351.311793109 -34823335.37660056 -6244594.560828227 62329810.410313174 -55575539.67392261 -322749039.89289093 218749574.17636865 1876247360.539362 -4521279198.474696 4567168698.1653 -2342645594.988489 645171077.5092016 -183388559.04575944 49269174.0047994 3334438.3274997245 25263288.046295438 7133030.7191996025 -11749812.951056344 -19372319.575149387 -7461596.890600616 10272033.50103783 15857668.95290853 4994005.518366611 -9494698.212495841 -12436847.376750238 -2157380.778101451 9119712.959089994 9107074.169091865 -1668419.157426286 -9566262.196169887 -895942.7286783976 4578403.253266029
-399489125490.6252 72609158157.88828 -1036982145.6062202 2104537145.663297 -1964683293.9435632 -1144840331.9179626 -159827681.99662477 509277033.415265 447864968.7167454 42610125.719696306 -247832687.5566159 -222506759.83920342 -8612498.916056283 150160436.04135758 129404225.50290002 -4636054.189749803 -102613984.897368 -83360055.83998942 9994642.659598446 75854290.72485377 58058513.40261665 -11810858.573280144 -59444768.832907185 -43511472.610055566 11710485.651967302 48967256.61746056 35551394.876850896 -10289146.141022542 -42434514.22013495 -31431964.88816544 8721213.240682231 33074530.886020664 20701079.24208134 19405770.54143891 40399852.83427661 -109532314.09004863 -374149049.6357731 272292866.61248285 2119509036.9739163 -5008315839.91831 5036464600.210963 -2625099569.829014 714085189.0131867 -178782233.83683625 76486456.6004046 529870.0387093225 6062303.112275268 -7943115.8451111885 -7068463.677857767 -2477832.1193805537 2466493.6244805316 3681260.5686515956 1742737.2658570048 -815431.6921852605 -1893868.60454732 -1224505.534470755 122332.33150562948 975791.468978135 902040.392288355 190144.00491533286 -601682.5725650361 -841429.3301721683 128370.01539112526 508408.29751196556
1255270266146.2654 -244460935245.2756 8690408792.862377 -4106045165.7819295 6391095911.466786 2476237641.89082 -269984276.0736144 -1502225256.5795386 -861895070.2134012 201124481.43094268 655802208.8994285 362862269.597448 -146527164.33029082 -352185451.66121954 -171495302.72874072 112146395.59520401 209262063.72591954 83178188.50520746 -87536877.27712776 -130338017.02082105 -37292048.88481341 68482175.92721821 81517918.66712368 11376090.985626247 -52847565.940631725 -48221280.70979835 4342271.126389405 39203916.508327246 24185912.97325676 -13576740.949975256 -33061171.705536786 -16064247.750153722 48495000.05134203 101334014.8613199 -97326100.13782792 -443445210.3738755 257814457.62403375 2334181914.581797 -5518689494.868208 5609277914.358363 -2897390243.4923096 764157701.91428 -225511570.14397782 83789021.75729936 24194786.191800643 27570021.758956354 -11917660.22447703 -28890973.516468503 -17847692.71478967 8549428.42092892 22313976.294290405 12147607.663171444 -8388409.317749807 -17307253.829018425 -7386206.375588314 8491372.567420185 13144568.163163576 3346476.6185365543 -8595659.814024435 -9378032.981958678 1118040.2743960938 9194358.625882255 1073127.5686222014 -4298576.964118499
1600892146274.5881 -306107881418.15753 9233784206.786194 -6117947103.631806 8058170568.135598 3542858677.068967 -67843188.70831987 -1940958567.314738 -1288081892.914303 133625463.55165577 873380439.2514608 580321089.7541343 -121064279.61610323 -486622752.4578385 -301770001.5832786 104130333.65467669 302983191.230918 170020270.4515345 -87304603.92752545 -201026492.1276534 -100265738.4221117 71418823.51304829 137979380.6694657 60897753.15332066 -56134744.22812938 -95634506.9119435 -38421125.48474173 41860306.46653256 66292956.574625805 19112672.47081406 -39777452.14792032 -12138978.308347829 75466131.59198822 -82912300.19576797 -438346494.7756118 309992318.0014568 2556025057.099844 -6145457178.200875 6184784023.016051 -3173645931.743996 878109831.6021584 -243102859.68653312 67564578.65702075 83315.03581730633 29825505.05828646 9811219.40175974 -11825872.472449256 -22985476.573199376 -11079319.433589311 10213710.967031972 19403899.681993946 8493198.454845466 -9586794.747057287 -15906251.639696907 -5396245.522372741 9264462.285315838 12510326.356029062 2313801.972402434 -9089239.36512417 -9179311.022118647 1639631.7082824304 9619032.70307166 905994.59741623 -4608851.492877674
200833752557.8126 -33766809045.32411 -339976383.4874214 -1498592481.283016 928046201.4562496 761817370.7330841 224125447.50787398 -262082796.06435218 -320033569.85298425 -88261340.22905077 139913899.00889474 173138097.7865394 41994924.0967234 -92881171.89228854 -110093797.51434286 -21362393.08630561 69533460.89131996 78133780.23143633 11084971.0091974 -56414764.04061242 -60630451.503724866 -5970266.160902492 48719874.46732523 51408644.879808225 3958524.1940159714 -44670455.78839304 -46775813.27619924 -2911240.187223184 35344725.16666202 32451715.311827596 39277268.34030935 62895285.11677748 -155031291.14253846 -520950931.3480041 368394002.94536835 2875999644.044191 -6765177198.603794 6799874359.643339 -3541462447.2190228 955836368.869224 -242769566.3597935 107118670.2532111 5472900.346732448 8738451.083906304 -14484974.143023007 -13218188.933203878 -3160434.5667652357 6739973.401105005 7718027.85584733 1698099.6282971038 -4066140.6675768667 -4496871.070704 -708901.762825423 2637985.7025104146 2552846.3444307297 85558.96136209028 -1719232.6092676283 -1291805.242458331 283086.2781665411 1032191.9947592157 391871.50782971736 -443062.5093771889 -252978.70571481326 106983.34324092515
-1474603386655.017 286070922567.3614 -9859891166.266127 4989107463.238211 -7483626773.86297 -2974067346.9098587 265845336.50261575 1762907162.7862313 1041159874.9078587 -213242454.55328086 -770687470.3708906 -441992963.3268885 159143491.55448392 413746988.7032373 210960803.40051925 -123111117.58534972 -244961736.4739545 -103592542.18364695 96206146.62996547 150959366.112379 47102048.1924788 -74593235.1652941 -91690094.6895659 -14481748.856072048 55952469.92828769 51250292.51052376 -4622097.081166334 -47967792.43571427 -35858698.424339086 56961225.581340455 141970373.98393926 -122616657.20622306 -596829029.6542379 348989175.3318607 3142662263.6655912 -7441326340.83855 7545039690.536882 -3880721170.6091256 1028343342.6660016 -306631413.6715485 106054290.12815161 30271078.813155923 40740443.94094504 -10839591.298197336 -37639969.94343586 -27615771.35795757 7312652.1213277485 29731653.741807077 19951180.53477399 -7950646.755231796 -23842940.98974248 -13592233.04103615 8819311.726734737 18993123.271761596 8283241.11280101 -9350017.622436047 -14649219.15434316 -3752137.553680345 9650282.861012034 10544949.214554925 -1288857.1572637614 -10406730.106126813 -1192935.8659385473 4884759.145292992
-1593851460552.4844 303535360774.8066 -8863076366.314085 6299381143.159364 -7968996238.721939 -3598740354.8289413 -7012815.399000709 1918632843.6062958 1319494376.9596896 -94172362.17363414 -864159105.3910459 -602280483.7673751 95283368.79310507 481963217.59828955 319012425.3783221 -84634385.04943116 -300129933.5233411 -184759248.18740433 70643597.68022841 198586787.38662 113806943.95130202 -55267179.96020271 -135059877.72487205 -74453563.88374496 40122473.43845559 93115041.89031361 42791864.40797337 -41183348.87564036 -18341302.759814274 90015931.65206134 -123757506.83184421 -592637943.0193261 433501401.5841801 3449069448.8900876 -8260835671.618032 8279813989.127694 -4249343503.405073 1177862994.3460422 -317514091.93634164 93041449.4619046 -4312177.6056356 33548621.106064767 11593831.70104444 -11446717.04908641 -25652730.369703095 -14399077.121260567 9489719.459894693 22123939.622647002 11924157.254772555 -8967520.63274666 -18712986.47033723 -8674661.483541472 8921558.806752898 15395926.92669509 5410359.737404242 -8859625.34067353 -12148862.763358021 -2308444.02079397 8803160.43996863 8933870.359190734 -1586996.1377188535 -9367575.819880709 -878501.937597133 4495519.449854219
30090330565.445248 -11190868340.606268 1885550576.277658 764078345.9442941 270368363.6784601 -306582934.3056677 -289668128.89062494 -23723523.73263877 167613306.29216406 137551088.58894408 -15319218.090064008 -114348474.96756816 -79122626.24834089 27128319.002361093 87650174.70604739 51039400.65508936 -32091414.58843894 -73231911.28688958 -35986922.6186461 35166936.32372066 66229873.43926207 27882477.49616629 -38386885.945019916 -63165106.95314061 -22464842.22086481 31304244.920677222 45184466.109426886 69465114.16604842 98806796.29986447 -214009830.6288269 -719250289.9555633 491808285.8871107 3868509929.561771 -9059094163.46668 9096919659.162779 -4727481650.272693 1265498048.759007 -327724134.8748146 146209009.35807875 13876242.453798337 14113268.034732394 -22968363.857317705 -22895015.396035075 -5481541.667815164 12568710.630353212 14484452.043870091 2687163.2375113964 -8780304.058688032 -9259915.1093639 -773134.3371839296 6557978.083675572 5862577.34995876 -464541.4374247555 -4955317.4163316125 -3486208.192873122 1215309.3163290166 3647335.1281145317 1724118.678845794 -1651832.338368572 -2479427.234986489 -168809.10508772783 1934513.3601653755 405052.13644796435 -818542.0429082802
1674198192867.4275 -323672677896.08636 10870051649.616537 -5839001204.977943 8458182661.9727745 3437256959.16874 -244230218.3062587 -1991611989.9201193 -1208864262.9139457 214208485.53674093 869425796.2290312 516407868.17954934 -163537548.48169768 -464761023.00588095 -248022000.7722542 127304531.75440215 272310449.8835565 122183267.72887644 -98765736.23842214 -163527456.3602248 -54926494.372470744 74399274.2442308 94895046.42169367 17002529.371702094 -64926368.685237765 -67184244.5311823 61879502.66207125 194509582.14743352 -153550976.54599243 -796868278.7377471 472595965.8812175 4206324103.0721483 -9968320158.558771 10070772580.92229 -5155738429.704073 1373560875.1177917 -410695013.6993752 132420839.87123261 35472609.850741565 57283212.16600181 -7440165.750665054 -46708172.261868946 -39985727.80386122 3935908.4216568996 37483538.03904212 29982337.453552518 -5776297.911486575 -30787309.522756774 -21707596.227300484 7817890.587612653 25381983.14070871 14841095.414346868 -9310414.883064656 -20547615.914880883 -9069548.298563741 10145064.951374836 16001410.035206575 4107836.3928965474 -10596628.599112937 -11584991.065732706 1443062.3901565378 11487149.230178822 1298986.8296838636 -5407199.880162873
1536720777030.626 -291207684462.92865 8174448504.926091 -6326344327.873528 7610289875.284572 3552636466.642906 100755424.96205068 -1828355490.6224978 -1316934935.9392557 39674092.93249969 823374163.7720151 611511798.6707718 -57087848.294368 -458992777.14370745 -331934762.72421664 53911556.31424453 284892049.38761944 199394194.7013344 -42677925.362331815 -186650580.74734208 -130217148.10752209 29014918.98796725 126202994.27649635 78886407.35813943 -36300628.54866787 -23183642.25228675 107200787.17258525 -184927737.5004461 -802857889.7976687 601791523.9422722 4637283732.948696 -11046958635.576935 11023105212.0462 -5655810110.630367 1566112197.747316 -411585721.9401106 128921650.11670189 -9370060.619818958 36137007.558877416 11413641.508590005 -11146305.61585384 -26973913.455992475 -16621258.670485424 8435847.685865236 23616984.12410247 14661474.87554343 -7795450.006652512 -20408199.143941723 -11508841.609938089 7943021.206165304 17332515.55752199 8215168.509988655 -8172839.034794224 -14315470.848359313 -5077553.963641875 8235147.165675442 11330312.364519086 2149655.597650801 -8235316.0725576375 -8351940.297001972 1503989.939435096 8789589.352839857 811744.4928841421 -4227968.277025105
-284430500294.91675 60551681204.93063 -3550581763.372954 68754194.36525604 -1581970768.5164146 -199978920.4028125 354652631.47843057 335088776.6360794 1039593.6290480291 -189103912.91382235 -119340466.905716 50749649.92380211 119202613.25503466 42815554.69294806 -65579599.48657202 -84323733.90577632 -6383953.799386596 72378017.57613881 65208808.702510804 -15501091.328330688 -76717562.92309065 -52459777.58622122 15863653.070456196 56422794.940365985 113697908.98601778 155542320.37324908 -290367065.9565616 -990095138.768794 652680230.5314323 5187915659.040188 -12094594817.079594 12125467664.761168 -6278549650.973195 1667108066.1223273 -441772834.792454 195534690.15713575 26742266.611815706 23879712.050987784 -33148032.326088734 -37159376.98993341 -10683279.443793159 19719916.14213686 24827178.773609143 5679984.12856693 -14810465.623483667 -16887865.997892186 -2174672.630514191 11821535.799237048 11505541.612139486 -188112.0924770721 -9552107.289789708 -7595653.235763659 1710969.7120166104 7598729.619886227 4611654.774624437 -2623626.7587450542 -5806820.719235387 -2240490.0959853185 3149573.012802654 4087143.4138867464 -63035.57380177752 -3573800.5001951214 -576988.6788446247 1598805.6434035995
-1842877812754.2334 355093354677.7016 -11656656186.7815 6620603759.679557 -9251909201.225496 -3840569397.2345967 200711993.70593238 2170933615.137629 1355620750.1518025 -200250143.6992261 -942814617.8174616 -581528343.5415084 156458750.11730397 498703268.43122584 279577357.61707634 -121648149.15962888 -285281580.5929551 -136392756.6423971 91637718.01304707 164619694.61899987 61115100.174917825 -82054289.38863337 -115085537.54113714 59980190.60514467 262371160.08036336 -193554421.07315508 -1062863239.6598961 644193477.8924037 5629083516.771527 -13338122069.112413 13409740911.882427 -6830687267.305818 1830043314.9200704 -544610555.5143884 164544937.57871246 38615815.34728055 77278481.85846359 -1113077.9862249913 -55392422.98598933 -54913900.07112111 -2202502.075145887 44918038.28955572 42193219.68820144 -1309722.85375659 -37575343.495812245 -31722439.942538433 4955450.396374136 31780616.067971587 23058521.17828792 -7813345.183796131 -26652461.745801423 -15820338.577883733 9732926.475283409 21799564.41484964 9688678.085906435 -10792315.140715593 -17085254.006880224 -4386486.142466617 11360731.336317774 12419060.18856285 -1571411.7701578026 -12359137.033102782 -1382334.328076108 5830219.039328454
-1428692607482.623 268952265472.36316 -7160392003.753402 6200501454.384758 -6975544920.267449 -3404209491.264167 -216419917.90026408 1667733395.1667771 1281163934.1111376 32637932.876932684 -749292816.9014193 -609197305.2022513 3403902.711702991 415775156.5494245 342103645.4406532 -7853627.28357646 -255099655.5185544 -216433537.89609385 1401205.0961022754 165902521.53584972 132310067.7470158 -20742770.860418346 -23183877.672463037 130022992.04227284 -276857255.9087538 -1096484707.9730022 833529707.8335756 6245255997.270811 -14774848458.16734 14670461139.367626 -7520185501.904185 2074515458.6901891 -532940079.4312332 179718219.79577923 -14190673.315554205 37481872.388621815 7830654.0763070565 -11909468.26905808 -26668557.729688425 -16669934.995362155 7736647.212289683 23548941.849471394 15818831.74918705 -6552870.87119138 -20640656.69495391 -13179493.36622367 6621754.689542162 17909068.688269913 10156145.566272127 -6995813.924053033 -15273405.176192034 -7190490.154524646 7287924.508349126 12656984.646705868 4416859.657418868 -7369974.349877384 -10045767.607139884 -1842143.9119429204 7374707.506102216 7426447.475674896 -1387779.7382335924 -7876567.339988408 -705208.686139861 3802174.396152952
551181304270.345 -112189096021.5035 5275383144.439114 -961312355.7465844 2946033756.340995 730893651.5417445 -417403141.581906 -655380858.3817065 -174587342.28056443 241791923.43394002 255447288.84041214 10746809.235788468 -162175399.26085004 -111088927.58452141 50095281.786944285 121910798.01299858 40526514.7643892 -78468521.60410942 -96550874.12443742 -20336141.28872643 60800952.401479974 177398611.1559581 245356408.82047802 -389582707.8941765 -1366037621.946838 867411140.4694133 6974266139.947325 -16184986098.897814 16184034061.002165 -8337162156.443042 2196808218.816098 -596605486.1198503 257526680.25902626 45139659.22375038 40298286.31442683 -44474871.957896754 -57173127.746227756 -20388890.017420296 27672339.154160116 39639557.16982361 11948157.719648309 -21755477.192385424 -28109691.146527763 -5925736.303446182 18140663.958234638 20101813.286624584 1728343.1933036603 -15315848.314921904 -14157666.81147822 1122913.1040986122 12801965.559984807 9545316.056918 -2975011.157413689 -10414004.958964301 -5851727.455667069 4078835.4401564095 8089405.838024757 2807701.9415711327 -4711460.023262513 -5780357.825374088 296951.7470047753 5289605.455762134 759884.8842986234 -2414558.5795051423
1969770046686.8577 -378203974519.3851 12156631535.918772 -7302544881.442055 9801003393.051922 4158939167.908189 -129555634.63014422 -2282052620.6468277 -1471580226.4493177 166645973.97603676 979893319.6934477 631688497.2994262 -133645845.17809689 -506403755.1104731 -301433739.1619722 101265883.09966879 279081100.84011245 146532157.29795942 -95534544.15830964 -188217184.10525322 45502290.88213055 350740696.1620883 -248869678.78279787 -1426096135.2206044 889319203.3630465 7574599136.956787 -17919247108.308563 17902932859.61449 -9069970474.963354 2442646142.979968 -718537286.5045981 205340725.83546516 38257364.77917843 100693987.74955027 8652753.75699451 -62836712.72644486 -72112569.85177548 -11623681.84312708 51242014.31460764 56304946.24578226 5929372.469436839 -43477772.8941018 -43384155.3902216 -203803.68332332146 37548332.12465446 32748224.573085424 -4417363.928640195 -32350213.99418903 -23891500.44549513 7791161.242664898 27435066.250995617 16434934.360240854 -10001747.382368056 -22598070.31112137 -10079192.26590092 11220443.476837426 17791421.943128742 4559103.718804269 -11873613.961157661 -12970738.118849786 1665913.2540587601 12949152.763309123 1433937.1106480157 -6119686.012298936
1271337582264.338 -237034598622.4663 5822640920.093224 -5936306144.9398985 6068936157.818461 3159801937.264516 359090319.3018539 -1436318220.7354915 -1215883400.2444885 -127500807.42898029 640084516.6396686 598495199.2121785 71718354.6391785 -349819099.1267887 -353538629.34657824 -55996227.40650257 212305341.25298548 210999871.46371478 12836566.037923113 -11798990.695194947 164390370.60325235 -416823973.7623826 -1519243626.1724057 1158309310.4647312 8470751261.293073 -19868883649.840885 19618795010.366207 -10036530590.410671 2750781780.0683823 -693771173.3171364 251654274.29313472 -17373451.923934497 37862757.4749095 -943352.8175189903 -15251212.493666926 -24648160.782818712 -13166770.34697333 8532654.086733814 21750528.321746897 14267898.03419878 -6081727.062115255 -19163618.781487215 -12728820.610784395 5587920.425234852 16842072.55600326 10436521.020283429 -5758254.796818531 -14668106.065252008 -7999759.741087212 6054314.645971794 12550793.706555273 5645308.746748222 -6246778.760558333 -10431344.745514879 -3444466.466298638 6262283.570910534 8304251.166174035 1391072.2173819186 -6226177.574268099 -6164597.136007218 1238963.687161532 6635866.5853089 559478.5490082933 -3221949.9744428247
-817742044417.4955 163675257783.70715 -6997210294.128629 1867550167.9964077 -4291851482.458873 -1252872633.0941498 477203133.0296663 964573233.6704749 337702308.4784509 -295930413.6877984 -382030636.9852327 -58994538.4529887 209266220.48904413 168905695.43165812 -46003505.4724239 -160586694.99770144 -96078521.82628468 46846102.329494394 269394898.18505347 389750135.8382834 -520380145.854328 -1900959862.7491717 1163222292.6809645 9452957962.382624 -21829323133.27514 21740824950.347813 -11123584283.84294 2910921973.208338 -809529713.1577476 335591247.6672517 69938651.51920573 66169906.60678966 -56111086.96723404 -84184305.66269372 -36595324.10840365 35607558.924099326 59845421.9057488 23066366.32197322 -28927258.90018186 -43633267.94978368 -13275131.186358886 24973538.172339953 32237804.20615207 6297815.217217813 -21830218.36912076 -23682781.33537 -1388793.6360156878 18932338.89280365 16976685.922365874 -1988568.3742633124 -16094254.348648224 -11573779.796131494 4197982.744267228 13243101.059397604 7128734.855484868 -5511690.066806294 -10375875.104405308 -3391447.0732680997 6261972.163211701 7473584.313608716 -523913.7155230224 -6998742.898077645 -944039.542992829 3226612.8273170204
-2045487946586.3694 391145421215.65076 -12318934857.689661 7862211542.570596 -10044618321.287539 -4368684634.155867 23310914.396044623 2304287602.9599094 1545820908.669133 -107123718.92585872 -966015614.0698097 -659886298.3326735 88213754.53065547 481070240.70549 313880814.0583865 -97440682.99332452 -303317907.10240394 7569324.692381679 468618149.20035785 -330807698.30980825 -1940195187.7208314 1251160813.5778778 10311740739.217073 -24306813560.09599 24092775528.525448 -12132454706.358356 3280840258.131848 -947691842.6414658 260076269.97490636 32714054.346292038 127249201.62998116 21904475.463364348 -68323643.85940568 -91129611.92367151 -24652394.973531783 55630739.69041499 71811504.02933303 16257180.660798622 -47677028.956724875 -56187870.3681496 -7948519.8887957055 41927238.0884012 43457802.49715223 1158321.5598440452 -36959772.29551089 -32920707.30123281 3995423.1150071276 32236494.40253238 24080095.824305948 -7668137.676165509 -27552554.387639936 -16593328.578925831 10051707.364589134 22811028.98161484 10183232.117701758 -11367587.419600133 -18021118.349200718 -4598651.37384663 12072546.892252069 13169813.192852711 -1719501.2968366889 -13189735.464058686 -1445618.7328927785 6244094.36775036
-1069878859742.1693 196402122918.6064 -4182329647.2257385 5567490205.511301 -4909788945.573762 -2835155520.0961704 -537798163.997072 1135161217.9251812 1129322613.60506 254396408.72692043 -493703432.1017925 -586835613.7576212 -171404895.35446224 264634608.24697265 329244844.4789748 77936242.83209482 23950477.077451255 222347575.66948238 -635052868.4087774 -2151130863.5489507 1626146071.3548298 11643429420.63649 -27025925113.298214 26510350805.2727 -13513846780.063503 3669793914.962829 -913769258.8748268 354026219.0945761 -16396415.18260385 38500784.76560891 -17061930.998361427 -23586391.9925051 -21437157.747024577 -4648512.035554475 12444045.308874616 18349001.909802843 8716357.170042645 -7620513.962687686 -15927751.522487743 -9012447.652327163 5823693.230677173 13998959.67756048 8070008.428795815 -5223657.173463704 -12310527.021492597 -6668924.069122261 5090906.575665628 10738507.942884224 5140315.804012664 -5087567.54285511 -9210659.550311308 -3629482.0465299236 5051808.4807808865 7678728.528574676 2185079.3996815714 -4929094.838121948 -6139619.202108171 -806488.5072388779 4812467.276525974 4592019.17484112 -1061284.8966571437 -5094166.482729745 -377296.408652741 2500091.561611086
1069100860600.9089 -212113872640.4713 8643620775.844664 -2730476017.747612 5534124652.136461 1722686466.5775378 -536032177.10683656 -1237385953.255021 -467201353.48946077 353836982.81957227 483089258.24918026 85124955.71872832 -255581992.19930297 -254926120.5951374 -12475641.87104071 405651116.76688886 629970686.355748 -697518346.1498581 -2689986394.095225 1588291432.7378476 13007229083.124744 -29862787993.84778 29565065666.08192 -14994287310.590801 3900066475.120863 -1107635393.920743 434805244.0968646 101857866.74094307 105445832.62772541 -66422784.12295179 -119239755.170369 -61682597.65585059 42186854.2905082 86112924.48237462 40718814.131828494 -35375773.2176429 -64043897.5943906 -25599503.290075608 31547681.932275057 48410721.787406325 14683997.816443026 -28429839.81971724 -36571715.58510026 -6786825.413307316 25450607.34503457 27266662.16647712 1162495.9344307894 -22391925.02970559 -19740013.287882693 2743579.3604251244 19213743.92504109 13540212.381444043 -5314339.841643827 -15914363.190418305 -8359988.24974247 6842167.736264743 12531674.026312437 3954247.3520720783 -7713847.512237064 -9069076.294160392 732698.9810945642 8604860.474061297 1118135.8283082645 -3989780.8100640276
2061842980464.8088 -392245903433.3962 12099602169.266687 -8288154766.447911 9919325276.460186 4444855274.258764 129145267.8567614 -2210318072.3034825 -1565502248.2812202 10831262.844682064 890680206.4450464 666353979.2007251 -69572207.73102917 -498066606.0727256 -77475122.1325105 633040516.9964135 -460806481.5034565 -2703239915.045405 1807586087.6828141 14308420088.244411 -33514851399.781357 32887111836.350296 -16444953324.71854 4456991573.2446165 -1256558953.1093245 337588853.61427826 19676188.33863796 156286878.11563393 38136383.897418335 -71049433.09365974 -110887836.06994936 -40966767.84100782 57399031.888785176 87802887.58899592 29477603.303735584 -49520376.02450294 -69391783.6063817 -18263145.86170901 44193563.15326574 54499734.22225784 8987869.261584606 -39728243.61665755 -42256861.47105025 -1750193.597375131 35509841.4223456 32085328.615660626 -3610035.7566901543 -31242676.732928302 -23507553.171364844 7387176.039409815 26856062.74992304 16212441.429498924 -9829350.97461531 -22322817.478666924 -9948964.213266522 11178730.632323056 17685411.15616107 4480291.382983755 -11901317.045789894 -12952909.240941651 1726097.7415759559 13020257.213343399 1409441.8933108205 -6175647.296485842
832992801620.8934 -148611044273.3786 2271080266.240432 -5153966069.163381 3526896915.8771663 2457268273.1715713 771662107.8262627 -765352572.1485295 -1037623521.1816237 -418039634.919112 317858110.04234856 516365643.5542456 203288877.63486326 112862119.42638291 330034038.17502016 -989598886.3346293 -3143105066.1555214 2328138993.0905414 16348721687.149923 -37459001472.66427 36442091954.1107 -18469513573.052853 4955418722.221112 -1225730979.394717 501205262.83191806 -7368397.04151524 41692241.93546162 -43530851.83344615 -40740420.185972996 -18295367.088537622 10804562.355932951 22172326.717546623 14222972.102425005 -2204588.626872387 -13041960.372540995 -11421941.579805125 -919814.0149568049 8650418.085465832 9523174.741852572 2006691.8988023507 -6439049.557590506 -8178500.191571732 -2224178.37391852 5266102.25226674 7140834.3911670325 2064896.7067567126 -4556068.170229962 -6210788.640338313 -1688754.4927256443 4086254.7239474305 5333726.958202974 1208379.6935820174 -3723082.7296042535 -4470398.759857152 -675723.2622314472 3404085.538389029 3610299.180070124 103526.70776864195 -3174473.8243713607 -2753208.2426396664 861799.0947760587 3298143.872318796 162725.71586296277 -1659569.504158545
-1288498780998.243 254286795987.89786 -10149805419.792324 3477901481.6193395 -6574101482.285309 -2080923711.9442594 600103171.7530239 1439865881.8936114 544467393.5545375 -407803653.1588369 -620756244.9463967 -191417499.58161274 619507520.6346152 1055727968.9631463 -947563019.7640297 -3916216153.0668826 2233973622.989211 18334704318.146145 -41773977379.3613 40997109323.96907 -20558721731.644157 5317624197.98512 -1535239625.3909745 563656917.849003 141469139.64818144 163710716.28646475 -73045808.66559106 -163579194.39600748 -98873931.77853346 45310418.503566794 118929345.36981931 67027941.47171534 -39459213.47683245 -89460928.15829805 -44299260.95121258 36686705.296202816 68695849.60884279 27916822.492902946 -34284145.73518835 -53010329.96002575 -16013742.64341845 31638308.92842625 40609903.65896966 7335875.86016237 -28663214.510281075 -30526561.28031076 -1051229.0177728091 25424517.857096117 22225135.212572046 -3345682.093081137 -21938532.47494958 -15299923.73803319 6251168.285457221 18243227.697057452 9458309.011308048 -7981337.060043461 -14410320.628990209 -4457409.539703907 8968942.496756107 10458701.882482799 -909434.3542656517 -9999544.51911227 -1270563.5271157636 4652384.932276427
-2013233955639.4087 380271052236.18555 -11483418449.912443 8589224151.703235 -9354843812.125525 -4361934737.6297245 -347960413.4373584 1982548600.3915982 1531428393.517013 37609552.80626241 -876732571.4454834 -271487259.38599 880027023.9811842 -682263073.2795657 -3910559779.1992583 2711330617.719236 20441335801.760468 -47394964653.182846 45905285597.561676 -22753757593.917645 6163459856.945526 -1686855874.6620314 453286665.9971477 -3889871.259909727 186915974.96459854 55992495.58668063 -70399848.71367103 -129858017.58102056 -59706566.38224295 55843289.833925426 102765514.609466 44795820.81932377 -48342198.20016627 -81606234.04694824 -30417782.147553857 43803655.57226022 64750122.480975255 18549739.370605554 -40142097.10815994 -51034857.88330819 -9216713.41658869 36617315.00438575 39662413.804343484 2078803.8965984043 -32995936.33950581 -30121517.689321175 3209503.2782111736 29219378.787943624 22080119.612146147 -6906954.89183406 -25230852.26389558 -15229223.406054238 9289416.159031438 21040081.969548944 9336269.886702256 -10607424.20356495 -16711987.952585744 -4185643.568830845 11311874.608117219 12267354.609814802 -1679824.442749212 -12389517.00108162 -1319404.2914245038 5890340.893816825
-574790006169.1252 96166982682.22621 -142632081.09952036 4804161621.44469 -1963991433.9262464 -2074084194.2381537 -1070096024.6269404 347852121.4965206 843068145.056287 463889600.2294626 330067434.6203685 551029728.163075 -1606655448.5686123 -4810704376.370489 3447099052.8285856 23715644662.97608 -53444870318.3556 51421614579.60133 -25827679544.74728 6825503516.479869 -1687167986.731997 716710693.185058 15808450.98219919 51701872.4701899 -84422804.09728263 -72455677.32883222 -17550855.344124325 35544384.45553355 41560445.609963775 10910835.596835824 -20212066.60804614 -25125824.688394994 -6729501.128135865 12869926.642377 16162000.803311557 4221679.219145555 -8734440.111928085 -10909757.379748967 -2764146.425143779 6147139.00473511 7651676.952204321 1931038.3438242415 -4404049.124122917 -5537996.951249473 -1469986.486583612 3155815.676659282 4103632.8761147116 1224584.9410592108 -2209295.8686393322 -3057431.800067683 -1050913.5453648625 1519796.5031820324 2294700.4747262527 917159.4494622721 -1026526.1187153587 -1739160.117719385 -807041.1189427101 692433.3683928655 1372716.386755973 715612.5909578756 -649994.5691481354 -1317150.2074025266 77027.36875273887 733603.0975014841
1455272624786.0837 -286240620676.76215 11460013630.63585 -4013938003.7261853 7281179398.005395 2276041500.241525 -655866250.0069563 -1681161874.5830357 -742547588.1017166 994956711.8332784 1899060175.7902133 -1321411588.0646772 -5974827463.65575 3291146316.4304795 26824861536.55262 -60444318876.45286 58556768815.19345 -28934528308.98533 7440604500.538891 -2169646929.505918 737352342.6688596 188917050.05152217 249128091.61612862 -72566231.28018951 -218565000.9909385 -152261959.81016532 42114966.688774586 158562989.547352 104436448.29917021 -39011136.401668236 -119705534.33244234 -70958127.3021874 38674814.881980345 92718937.92173678 47081235.08780469 -37991956.86158814 -72528942.9509904 -29776154.733731356 36458404.4173402 56662610.198907845 17101295.764129914 -34129328.528807506 -43789740.33772206 -7802543.43784881 31172291.96855693 33132462.200103004 1048560.1775565305 -27748768.32153744 -24193736.724056702 3747474.2136041303 24021269.63401434 16688496.738286886 -6930372.681398285 -20024419.845186494 -10325627.462701749 8829477.1463323 15846324.711345246 4856403.451914442 -9917103.560308486 -11520595.579841021 1038249.180237544 11059975.036180377 1387628.130820054 -5156403.728589793
1894862491599.688 -353986500922.5175 10463146398.21996 -8806943987.803272 8301652451.724322 4122102388.861843 466022748.7884501 -1844202089.1967878 -776816597.7444323 1297097100.67155 -1092868717.6475554 -6000560719.803333 4299908404.222785 30525590917.412075 -69651680885.88612 66285899595.607735 -32467555555.98057 8754542549.176556 -2314490627.1549587 635608164.1837995 -42244941.22264603 217802847.90045777 72375929.142611 -66279376.44913108 -145704654.09991342 -78810043.58651622 50649751.93843983 114522036.67628194 60500419.669020034 -43710865.3770976 -90857661.25627503 -42989489.847790994 40254282.60191274 72431714.89258349 28653989.94711122 -37681547.96206002 -57679755.27984568 -17385714.860046674 35137290.15506742 45580584.98451838 8696217.64954123 -32367090.224459313 -35481844.12805869 -2111631.603028402 29329746.62351509 26960787.452843785 -2749217.6602859604 -26048852.782688238 -19724292.47229544 6190670.925302752 22578742.65718943 13588392.080247393 -8395752.099588778 -18885649.200517535 -8312905.905640192 9612643.575442096 15038462.254826613 3699098.7763743326 -10262741.906960664 -11068015.559100363 1575172.0340254654 11252990.48864882 1169580.676099841 -5368068.232090017
313678968546.22614 -42188009401.15956 -2169127867.3967166 -4618867798.243269 311396803.68425506 1488266639.589037 1137007615.5066779 930161255.1130294 1073981128.9691176 -2814928038.650122 -7918677207.000993 5401350374.998604 36180823635.38287 -79709733934.38417 75475904695.39317 -37385182600.72791 9694189922.254814 -2406256792.971042 1042420381.68834 63334261.27404501 76347732.93953241 -145834936.84273502 -127791778.50630529 -23272132.358423065 72652352.88325359 76264106.13828066 11057944.99968344 -47307474.65751361 -47689816.077008665 -3649085.8424351374 33810726.43651456 31107069.493944015 -643266.5750321944 -25304468.863684196 -20741203.313481413 2984355.623028949 19365415.103042115 13908441.28417839 -4123856.3887722595 -14931319.852264324 -9239505.888437757 4513493.190950912 11466359.747109603 5972858.806142961 -4430816.942668091 -8674525.889867822 -3659607.5024678973 4046097.0860114885 6372344.595358754 2012316.9819344603 -3472314.739596947 -4434437.469015345 -815842.1439140729 2835008.554424433 2846222.5960908374 -187.83351351134982 -2154091.2665971103 -1548881.6618590793 515033.33124296344 1433837.8275341385 437573.3647265455 -760166.4053369238 -333749.04652359657 234306.95086218882
-1545994097063.16 303542068400.8324 -12440379068.811146 4280560251.13934 -7871942230.382961 -2658745526.73899 1764866692.0265353 3962706172.3888097 -1922772891.326512 -9872635038.808483 5215960091.214162 41611742611.79414 -92115329186.57349 87490587693.014 -42370530076.82493 10813982330.242956 -3157879524.49859 985338321.0441867 243382949.74775442 374448297.1542229 -60087259.95108266 -285879601.7901264 -227176868.0703407 28763665.627926823 204924937.160154 155593654.42017484 -31308351.824923698 -154032616.5874895 -106974984.29912975 35449991.83607811 119525212.02797803 72972891.85396741 -37903335.344682425 -94172303.97107117 -48615734.83202269 38485283.014334604 74494419.23812903 30845155.42553597 -37551226.85911935 -58654762.54568235 -17754660.974526614 35479256.36830669 45590070.307959475 8106154.840639908 -32586760.6682923 -34652268.54153756 -1081209.4772400972 29101460.836539168 25400908.163600855 -3902471.6915517207 -25202933.635939084 -17532928.32762282 7265613.622817438 21033978.599236097 10853156.136901101 -9281179.674557248 -16662172.887055034 -5103979.577259836 10438217.563327968 12122275.611348158 -1101347.7418382291 -11651847.078844355 -1455983.0611378613 5436882.285489985
-1704766300994.5608 312769996116.75793 -8960516890.683516 8461606603.448738 -7279048918.7090225 -2299126442.0914087 2097011763.8219538 -1927626654.082148 -10152866298.995766 7459500626.445285 48888293128.12903 -108698874464.35233 100842780573.17342 -48534092287.24812 12949480297.837757 -3290357365.09678 941302219.6098342 -102062013.76243119 246659037.59827787 80446283.279291 -59875179.61929364 -154675589.758727 -93895732.73777634 42384950.036991 119785315.53670149 73157869.14343423 -35821272.3508403 -94302097.4856729 -53248906.90818016 33488333.343076136 75073719.45262308 37119720.98679206 -32123585.67506444 -60057018.97631077 -24540340.64390553 30699056.964229185 47950288.20090766 14844583.465884298 -28942723.752492517 -37957606.46041854 -7435226.142180245 26823611.221103277 29573040.789878458 1841661.5342006844 -24394100.13788044 -22473253.500491507 2279229.2987846285 21708593.92343762 16422370.344879726 -5198377.993632475 -18828943.489778444 -11256396.59787926 7115001.530239544 15799037.935613586 6854506.9690586785 -8163664.91310468 -12619652.281820567 -3012076.747990254 8719746.590661624 9319875.834994193 -1406414.2019239494 -9574497.065824697 -956928.9594764677 4591038.157848315
-74161908923.21683 -8877285172.902874 3652530599.958888 3902569386.790003 3333041078.528647 2675902530.685908 -5750844706.67277 -14793319776.647406 9355503132.50236 59931558558.59892 -127571376264.84386 117781571155.84616 -57064701175.57017 14436906589.537289 -3607337774.464946 1561119557.476704 153726424.79968265 130489059.1581938 -237984439.9616967 -221947660.7099688 -42528302.07612507 126513411.47308524 134877552.03258845 18994552.2639832 -85941760.25623778 -86064190.68012595 -5028651.383741195 63450592.10415887 57070176.53862633 -3084377.954752782 -48777339.76017905 -38508637.54009456 7611879.495570962 38237123.8153172 25985734.32864013 -9928332.912768941 -30185963.99922221 -17236260.906184122 10846372.278155807 23781229.875801843 10990396.928510325 -10857496.982941829 -18544851.318070367 -6486940.764344723 10269018.468451612 14182621.78306553 3241778.5036869757 -9282453.120678974 -10504728.932583934 -935852.2665469901 8029405.852612603 7375257.059638153 -657151.0543108524 -6601841.628800509 -4686863.073483508 1729010.4178785484 5120731.292246268 2418950.9162102793 -2393257.7944210414 -3584766.235886104 -237009.05701878073 2823870.702586321 594706.3860237765 -1192253.3104911717
1531827248989.0034 -302778548370.2739 11514448824.14338 -1140932429.0519125 12959355763.199318 -3189326329.3957367 -18898928822.86085 9338724736.266954 71207752926.61542 -152708045547.88425 140425299260.5725 -66017687159.38072 16646122264.927576 -4813196537.88284 1371072490.397021 301081223.46240336 560956138.4545219 -28565205.211046286 -367536435.6194078 -330335519.78148156 297689.3426442207 257105110.8834599 222789277.98594308 -13182494.088799253 -190606369.03743884 -152894178.73245057 24760505.982021853 147094123.3747283 105492041.63470575 -32222840.86623548 -115984823.6572571 -72236012.37959605 36182788.858408764 92326639.88421504 48283742.9098284 -37544183.52890253 -73549684.88383177 -30723092.261986442 37047759.080442645 58207795.349692196 17737313.931413736 -35232235.396956384 -45423195.8110238 -8140810.277243621 32487332.607601393 34638274.99517563 1139305.7167442578 -29084158.71807216 -25468490.698696513 3827754.293521429 25217518.77927845 17636185.423302457 -7166305.665588641 -21019222.603890322 -10914480.606224084 9216619.644964878 16650346.986204613 5138857.943117787 -10400252.546635637 -12113296.641324382 1080927.9970037618 11624813.53111659 1458171.3229099438 -5423046.576463676
1426422696528.2068 -258064270035.34344 12062547087.849771 -491058645.4782937 -2705220825.560965 -20887053034.120537 15310287025.846294 88337171213.88008 -187623360775.31183 167021675660.3357 -78102249461.62239 20421136366.309757 -4953009644.579583 1498912402.3365917 -195208615.4750859 267914446.86549962 63518849.27229543 -55628080.63389813 -149421934.40833786 -94935751.78941953 33735063.17950947 112808022.77254573 75551583.2991743 -26255275.22113029 -87333686.26872666 -55814694.76307317 24382753.65281629 68904514.3733081 39870205.26449209 -23852439.567422524 -55005309.658911034 -27540834.1105243 23358762.44243281 44096488.86948884 18096601.12140917 -22542648.728993155 -35256812.21503466 -10875917.393841099 21356045.87341827 27928852.88484905 5377888.716682377 -19842039.53225038 -21759079.114617765 -1233427.4298906664 18068691.01413947 16519396.862771504 -1821367.9623625923 -16093921.834628275 -12046904.708419587 3985011.924559447 13965563.87058705 8219730.304425722 -5408063.399186033 -11715042.834494764 -4933350.730922295 6226990.890912422 9401825.704759173 2107740.443762456 -6651756.5126548745 -6986801.902320329 1169303.9505025416 7317849.8463283405 675828.7057955693 -3543575.421363768
-140267827145.44434 65582061346.61989 7481468288.108011 -16385415568.458399 -36321282071.88812 19868232040.999 115349843350.42201 -230807615435.63327 203656551031.37848 -95013802866.3658 23206521558.32256 -5828183320.133407 2463524082.0709023 327073455.02716935 245322727.44075605 -381995928.0775045 -384366825.42254394 -88294002.21219328 205173677.53652832 232308286.0650039 41943581.38008467 -140060680.1598327 -148587571.48549476 -15272443.498479806 103940828.42963384 99149070.38207234 -200708.96015551995 -80424843.70168605 -67579042.1543336 9075209.980193943 63576196.08088674 46268581.65776578 -13958751.061739424 -50733610.49184911 -31324193.438730795 16341188.724319585 40529902.121681236 20579073.927871723 -17105747.812351067 -32192507.054230038 -12747616.427689465 16793436.988565996 25246607.66011605 7019938.28057517 -15752352.652652925 -19385494.520506103 -2864755.389139737 14210354.870866813 14395046.831653526 -87645.39233378808 -12327823.853241228 -10125673.116475115 2095486.1649698021 10209204.481277486 6454623.474128072 -3363177.149317189 -7944644.481303289 -3262950.43706855 4158948.116395977 5622983.61027022 62788.385703464635 -4759189.616984196 -850137.0909552459 2082955.4802183758
-1315766186775.2095 301937191877.6709 -31821581862.55129 -46529915343.07352 20147218889.506096 147416643199.58475 -295073309444.59973 255427816326.04193 -114221256300.15831 28134401753.038464 -7930542708.772335 2052572509.4767733 350006836.2390458 850648953.9419111 32650478.259715922 -467014895.7753055 -471094414.01361036 -49588909.82715894 313154217.99747187 307341963.1971212 18592933.507281706 -226081756.1503933 -207512539.30652413 4643948.742384446 171943381.39869997 142797788.91834858 -19484004.76075915 -134731333.11439234 -98844513.6412777 28251334.164358966 107256416.98658162 67886162.83738951 -32866023.099974405 -85923930.69341753 -45502989.96407861 34645400.99341397 68759040.21413806 29040985.537766192 -34476047.04271791 -54604442.28891712 -16840058.75587446 32949434.39215086 42732354.58461887 7809368.460997893 -30476235.36348978 -32670516.593455587 -1215862.6487448018 27333599.092562933 24082646.40952307 -3465107.3262823173 -23723863.784225985 -16729061.849947259 6606468.683121827 19774268.019789744 10403350.19886076 -8520740.329451479 -15619227.600505646 -4910890.81106592 9670299.447787939 11346911.52744187 -958172.7217912943 -10831291.146273421 -1381854.8029046329 5041115.391616526
-860505652755.2582 124764924158.59143 -86594685304.9592 49589287412.37891 204087220517.99515 -393496466762.562 323102819714.96783 -143005210447.39023 35962850470.17936 -8216812661.279188 2661862987.348205 -347096249.65232235 262210282.85156733 -26709735.635498367 -67672990.19949073 -111389047.155353 -55546089.910437934 33079723.858996786 80963529.97043885 50490930.0469947 -20018011.008138724 -60841779.919195466 -38869100.62970313 15915514.585085476 47016639.26424137 28489622.321808424 -14562411.539949588 -37091113.08748414 -20246057.21479176 13957508.175254157 29607688.945549674 13874424.454366028 -13447972.08495057 -23727345.799629018 -8979398.602209646 12828630.881276421 18954200.5962709 5223050.398706337 -12056821.034883074 -14990627.289823519 -2353563.4773514788 11140991.29921656 11646704.90782209 183032.0031238221 -10110139.750600101 -8802914.982797053 1420487.7664796861 8988042.785177961 6371821.008404094 -2559346.0095667248 -7798818.344169966 -4293021.756202291 3304620.8091047606 6549601.318264633 2504343.8595445585 -3731018.495202152 -5269582.86634179 -949422.0711324355 3988734.1895276527 3983813.0898495535 -862150.607398995 -4409570.86404065 -317310.75649198407 2190151.042071132
55058810179.94698 -267397571161.02798 82111489830.2947 312829593631.6005 -538908742743.57544 429756646960.8291 -185916423523.1635 42718763644.26976 -10702591574.04553 4315873503.259814 710267246.8709426 504371029.702082 -640609351.8035176 -694015398.6179636 -190696076.05678818 332381942.3674199 405592122.97945297 94781619.70340654 -221533106.07494465 -254772416.33185253 -42417042.28339459 162053514.7235288 168619506.86305642 12646835.35113915 -124481202.90160684 -114945411.18503173 4554293.233817611 98224627.87877773 79352726.01343538 -14423099.058215566 -78591387.59934686 -54676048.780932404 19813117.05708074 63211947.06988996 37030329.63175366 -22354822.759732112 -50767616.59521259 -24158789.97657981 23025966.12578065 40470163.24702717 14677580.904239237 -22435184.22876457 -31816480.485796493 -7694208.451335817 20977705.614217978 24469776.656606447 2609816.9828040814 -18916193.614686396 -18189706.21101409 997615.4661867222 16433441.451397343 12798704.877221096 -3434352.497635898 -13656537.510846283 -8156838.926738513 4937308.283788311 10690795.553851038 4125270.3078686586 -5816782.3560792655 -7582016.388932322 59231.051736513655 6561195.447271651 1112230.4344015217 -2896757.038075474
-240657518795.66797 25718637509.78223 513837831264.30743 -814299615100.847 605641340656.3146 -243185986623.51035 56751980022.19992 -15163408611.871325 3552067218.6155157 327808362.78766817 1327968771.979692 135344235.0676097 -582659919.2200925 -652650512.5288322 -126080485.88199648 363071977.4516118 400621735.73590136 65121456.967956215 -249981338.25296673 -261049283.87750986 -25133141.576098263 184844960.65520492 176409855.3557434 674878.6157367572 -142579841.39817706 -121632285.2000849 13982702.477592776 112694103.70617889 84376235.31020793 -22460183.39485042 -90219809.61898127 -58084403.60468152 26953262.26345983 72557596.70155287 39041120.96611728 -28808825.117482454 -58231247.277197234 -25016102.147322267 28881589.339508787 46352502.20680757 14610781.138749495 -27725211.769359443 -36352224.108426236 -6905520.464624281 25713960.651325744 27852978.604754407 1278316.9522945706 -23099928.617497355 -20583789.90703423 2715307.896618609 20062920.17530842 14346139.692321997 -5396948.605436653 -16722704.664232364 -8975322.718144353 7026507.171193332 13191192.810125852 4306886.044390671 -7986655.841406344 -9524320.397267355 699629.0673588252 8974421.933763942 1189934.942126741 -4153369.4557221653
998362894084.8306 1052729749219.7446 -1395213354735.4114 899606386896.6764 -346894436307.3582 79573672762.97908 -16334473163.447327 6061539187.815566 -560151094.0207254 51056383.49293598 -489467596.7906701 -185644290.49890846 67881050.52857207 173561889.73636964 87738687.93539065 -40958616.10861269 -89661276.68218341 -42360419.80850111 28977562.568014875 53187792.37055574 21382119.25413704 -22261779.045999415 -34109049.915926866 -10675584.284396753 17728894.62840892 22917231.57601626 4821889.929975752 -14357503.62980961 -15813219.425930625 -1490323.6933186962 11712782.23705371 11046556.290021066 -429750.3668807915 -9570232.287355224 -7721532.134295402 1513139.8298380063 7799049.563661739 5342697.801550699 -2075949.1944645597 -6314638.328308579 -3616993.965684931 2301756.5065858937 5058963.520779463 2361950.6739728455 -2300801.391681823 -3988227.0058111046 -1456345.8483620835 2143563.5893085226 3069235.5855211727 816301.6352990236 -1876692.3423591433 -2275385.017244937 -379737.0822082274 1534870.1757104357 1587789.1775176625 101767.91675663779 -1142466.1334058694 -993263.9106000096 39725.026680928626 700351.6277657974 505185.4335464529 15519.503468272183 -292958.44486627827 -189239.32245389445
6517457170070.55 -3245964098445.5996 1612254504139.3035 -551539455594.1979 109756934108.27293 -26477247541.71438 9787279028.548517 1725620757.0565438 1201550256.9278448 -1226979410.1613743 -1382220329.9457128 -433473528.24454486 567386645.4980496 744294820.2614447 214447427.96471143 -353043819.7345604 -444755403.7344899 -105052230.19977759 247772561.56746185 285686829.9552255 45815994.19725774 -185710840.23164338 -191744917.7675007 -12255185.70501367 144560283.89646402 131863714.23215526 -7179348.16558039 -114979066.92931378 -91524902.13957864 18350690.699724086 92467803.94737005 63241804.29547006 -24441252.9055208 -74629678.0927507 -42849842.67438585 27277155.377913 60081312.77142214 27882718.533202082 -27962086.07120846 -47976563.02559359 -16807588.40065421 27187032.900187276 37764925.91400253 8624459.756241506 -25404047.772774726 -29073889.96844253 -2658157.382173371 22912794.29657106 21632026.45441149 -1572504.3869370255 -19923560.800449286 -15237437.016349893 4417362.866376261 16579506.074650297 9724049.844341077 -6155862.74551999 -13008000.299041346 -4934506.10908684 7147435.964773343 9256644.199576171 -34854.82189813728 -7931273.946083767 -1396129.8345751981 3455985.015897141
-11837018945077.29 3622624630578.346 -960711206617.1393 193531149826.90942 -39995472718.9736 10053312761.061886 -1419220441.4636307 1018253284.1722155 -119835959.14818405 -269524704.9588537 -288375316.2696315 -41470355.906469785 153340656.50103995 162115613.2597595 27545750.22634781 -94678095.8196028 -100532310.33945334 -13607542.858914081 65356222.817015514 65823881.91531038 4503281.062908736 -48328807.70431513 -44604330.62697572 1120194.5300621185 37244171.562713064 30784959.16792377 -4503693.616229519 -29404608.185397085 -21342116.588811304 6448517.975635264 23513968.167797014 14654746.654273244 -7452893.553671059 -18889823.12396625 -9799007.052913465 7826750.246133366 15141895.350070981 6215764.542479153 -7771203.917185396 -12036275.053613547 -3554036.3705328675 7416815.247074507 9421705.48312189 1580403.923305882 -6854781.654518927 -7199902.221065235 -138337.2147471662 6145204.470585086 5298538.593582165 -886560.8033433551 -5333855.409211735 -3667559.488867647 1574156.8112466473 4447991.771710403 2261680.1512394543 -1993761.0882674886 -3519960.3023537295 -1041640.081862865 2246814.680238573 2561898.4106062767 -303945.6356698336 -2559617.8108620415 -232928.25690703583 1267685.8980290946
5606281091741.892 -1437862952112.4004 245773408493.90036 -33371008720.95454 17568059602.30069 -612556429.544116 -1252521472.122246 -2219646587.7084913 -652314526.0764751 617582203.022819 889351384.4640337 308284480.02138215 -328449042.5488186 -468736645.2902995 -149844873.31811687 210713079.43234435 279951122.78240865 73280077.32496229 -150229715.06468213 -179949647.93434966 -32857245.53218998 113671681.94255298 120895549.38733768 10238704.694420584 -89021699.62660111 -83247470.28006801 2793965.8271679482 71095442.27661964 57881446.995042436 -10295332.12745523 -57343871.831015 -40094112.16515479 14425953.840614805 46385299.55594966 27267089.942603 -16412724.904856874 -37413771.44817108 -17851516.413709003 16988630.77586056 29929397.753094137 10883086.221391164 -16611172.81493629 -23605980.942508347 -5735234.140844496 15575022.753090128 18218152.008903574 1982317.1473890715 -14076977.426539743 -13602858.755483838 676100.1605969154 12250964.4669698 9633924.12061797 -2463008.9885913674 -10192648.793640016 -6212077.568860542 3550538.8964202283 7978119.219172184 3236194.124806609 -4155917.5216429485 -5638197.711961315 -214991.447674487 4530799.205437993 1005931.9793395447 -1820479.8873595279
